{
  "welcomeFile": "/index.html",
  "sendWelcomeFileRedirect": true,
  "authenticationMethod": "none",
  "routes": [
    {
      "path": "/sap/opu/odata",
      "target": {
        "type": "destination",
        "name": "Backend",
        "entryPath": "/sap/opu/odata"
      },
      "description": "Backend"
    },
    {
      "path": "/resources",
      "target": {
        "type": "service",
        "name": "sapui5",
        "entryPath": "/resources"
      },
      "description": "SAPUI5 Resources"
    },
    {
      "path": "/test-resources",
      "target": {
        "type": "service",
        "name": "sapui5",
        "entryPath": "/test-resources"
      },
      "description": "SAPUI5 Test Resources"
    },
    {
      "path": "/mobileservices",
      "target": {
        "type": "destination",
        "name": "mobileservices"
      },
      "description": "SAP mobile services"
    },
    {
      "path": "/webapp/parent",
      "target": {
        "type": "application",
        "preferLocal": true,
        "name": "heidelbergmobileworkorderparen"
      },
      "description": "Original Application"
    },
    {
      "path": "/webapp/resources",
      "target": {
        "type": "service",
        "name": "sapui5",
        "entryPath": "/resources"
      },
      "description": "SAPUI5 Resources"
    },
    {
      "path": "/webapp/test-resources",
      "target": {
        "type": "service",
        "name": "sapui5",
        "entryPath": "/test-resources"
      },
      "description": "SAPUI5 Test Resources"
    },
    {
      "path": "/dist/parent",
      "target": {
        "type": "application",
        "preferLocal": true,
        "name": "heidelbergmobileworkorderparen"
      },
      "description": "Original Application"
    },
    {
      "path": "/dist/resources",
      "target": {
        "type": "service",
        "name": "sapui5",
        "entryPath": "/resources"
      },
      "description": "SAPUI5 Resources"
    },
    {
      "path": "/dist/test-resources",
      "target": {
        "type": "service",
        "name": "sapui5",
        "entryPath": "/test-resources"
      },
      "description": "SAPUI5 Test Resources"
    }
  ]
}